{"_id":{"$oid":"5cf4ca3d8d0af85394be09e2"},"id":{"$numberInt":"1"},"article_id":{"$numberInt":"2"},"child_comment_id":[],"good_list":["LahanBadiso1983"],"bad_list":[],"content":"<p>這一列的對應值P<strong>可以被產生出來的條件</strong> :</p><ol><li>上一列就可以產生P了</li><li>上一列的某個值加上這一列新增的值可以產生出這一列的對應值P</li></ol><p>另一個應該是<em>boundary condition:當這P值一出現時，此row可以產生P，但是P值這一column對下來的格子表示的是此格所在的row對應的column是否能產生P</em></p>","post_date":{"$date":{"$numberLong":"1559520000000"}},"revise_date":{"$date":{"$numberLong":"1559520000000"}},"author":"asdfCoolGuy","parent_comment_id":{"$numberInt":"0"},"exist":true}
{"_id":{"$oid":"5cf4cb428d0af85394be09f2"},"id":{"$numberInt":"2"},"article_id":{"$numberInt":"2"},"child_comment_id":[],"good_list":[],"bad_list":[],"content":"<p>解說得差不多了</p><p>這裡再附上一個影片供參考:</p><p><a href=\"https://www.youtube.com/watch?v=s6FhG--P7z0\" target=\"_blank\">https://www.youtube.com/watch?v=s6FhG--P7z0</a><span class=\"ql-cursor\">﻿</span></p>","post_date":{"$date":{"$numberLong":"1559520000000"}},"revise_date":{"$date":{"$numberLong":"1559520000000"}},"author":"Antoni0419","parent_comment_id":{"$numberInt":"1"},"exist":true}
{"_id":{"$oid":"5cf4f2238d0af85394be0c03"},"id":{"$numberInt":"3"},"article_id":{"$numberInt":"2"},"child_comment_id":[],"good_list":[],"bad_list":[],"content":"<p>謝謝 可以理解了!</p>","post_date":{"$date":{"$numberLong":"1559520000000"}},"revise_date":{"$date":{"$numberLong":"1559520000000"}},"author":"LahanBadiso1983","parent_comment_id":{"$numberInt":"1"},"exist":true}
{"_id":{"$oid":"5cf74e9c8d0af8218480b9ca"},"id":{"$numberInt":"4"},"article_id":{"$numberInt":"16"},"child_comment_id":[],"good_list":["LahanBadiso1983"],"bad_list":[],"content":"<p>very cool</p>","post_date":{"$date":{"$numberLong":"1559692800000"}},"revise_date":{"$date":{"$numberLong":"1559692800000"}},"author":"LahanBadiso1983","parent_comment_id":{"$numberInt":"0"},"exist":false}
{"_id":{"$oid":"5cf74ef68d0af8218480b9e8"},"id":{"$numberInt":"5"},"article_id":{"$numberInt":"16"},"child_comment_id":[],"good_list":[],"bad_list":["LahanBadiso1983"],"content":"<p>i agree.</p>","post_date":{"$date":{"$numberLong":"1559692800000"}},"revise_date":{"$date":{"$numberLong":"1559692800000"}},"author":"LahanBadiso1983","parent_comment_id":{"$numberInt":"4"},"exist":false}
{"_id":{"$oid":"5cf74f028d0af8218480b9ed"},"id":{"$numberInt":"6"},"article_id":{"$numberInt":"16"},"child_comment_id":[],"good_list":[],"bad_list":[],"content":"<p>relly?!</p>","post_date":{"$date":{"$numberLong":"1559692800000"}},"revise_date":{"$date":{"$numberLong":"1559692800000"}},"author":"LahanBadiso1983","parent_comment_id":{"$numberInt":"5"},"exist":false}
{"_id":{"$oid":"5cf8c1138d0af8346c07fe0b"},"id":{"$numberInt":"7"},"article_id":{"$numberInt":"17"},"child_comment_id":[],"good_list":[],"bad_list":[],"content":"<p>good</p>","post_date":{"$date":{"$numberLong":"1559779200000"}},"revise_date":{"$date":{"$numberLong":"1559779200000"}},"author":"LahanBadiso1983","parent_comment_id":{"$numberInt":"0"},"exist":false}
{"_id":{"$oid":"5cf8c11c8d0af8346c07fe0f"},"id":{"$numberInt":"8"},"article_id":{"$numberInt":"17"},"child_comment_id":[],"good_list":[],"bad_list":[],"content":"<p>thx</p>","post_date":{"$date":{"$numberLong":"1559779200000"}},"revise_date":{"$date":{"$numberLong":"1559779200000"}},"author":"LahanBadiso1983","parent_comment_id":{"$numberInt":"7"},"exist":false}
{"_id":{"$oid":"5cf8c1258d0af8346c07fe13"},"id":{"$numberInt":"9"},"article_id":{"$numberInt":"17"},"child_comment_id":[],"good_list":[],"bad_list":[],"content":"<p>you welcome</p>","post_date":{"$date":{"$numberLong":"1559779200000"}},"revise_date":{"$date":{"$numberLong":"1559779200000"}},"author":"LahanBadiso1983","parent_comment_id":{"$numberInt":"8"},"exist":false}
{"_id":{"$oid":"5cf8c1688d0af83eb8448dca"},"id":{"$numberInt":"10"},"article_id":{"$numberInt":"17"},"child_comment_id":[],"good_list":[],"bad_list":[],"content":"<p>wow</p>","post_date":{"$date":{"$numberLong":"1559779200000"}},"revise_date":{"$date":{"$numberLong":"1559779200000"}},"author":"LahanBadiso1983","parent_comment_id":{"$numberInt":"0"},"exist":false}
{"_id":{"$oid":"5cfbb2d28d0af850cccbce8b"},"id":{"$numberInt":"11"},"article_id":{"$numberInt":"18"},"child_comment_id":[],"good_list":["NotSoCoolGuy"],"bad_list":[],"content":"<p>若圖有最小生成數則對每個cut都有唯一的light edge</p><p>反之不然</p>","post_date":{"$date":{"$numberLong":"1559952000000"}},"revise_date":{"$date":{"$numberLong":"1559952000000"}},"author":"veryCoolguy","parent_comment_id":{"$numberInt":"0"},"exist":true}
{"_id":{"$oid":"5cfbb31e8d0af850cccbce99"},"id":{"$numberInt":"12"},"article_id":{"$numberInt":"18"},"child_comment_id":[],"good_list":[],"bad_list":[],"content":"<p>方向不一樣 b是=&gt;&nbsp;c是&lt;=</p>","post_date":{"$date":{"$numberLong":"1559952000000"}},"revise_date":{"$date":{"$numberLong":"1559952000000"}},"author":"NotSoCoolGuy","parent_comment_id":{"$numberInt":"0"},"exist":true}
{"_id":{"$oid":"5cfbba5f8d0af85624284fb6"},"id":{"$numberInt":"13"},"article_id":{"$numberInt":"19"},"child_comment_id":[],"good_list":["LahanBadiso1983","asdfccc"],"bad_list":[],"content":"<p>感覺兩個都是true</p><p>把f(n)帶進去解mt就好了吧?</p><p>兩邊差距差滿多的</p><p><br></p>","post_date":{"$date":{"$numberLong":"1559952000000"}},"revise_date":{"$date":{"$numberLong":"1559952000000"}},"author":"LahanBadiso1983","parent_comment_id":{"$numberInt":"0"},"exist":true}
{"_id":{"$oid":"5cfbbaba8d0af85624284fca"},"id":{"$numberInt":"14"},"article_id":{"$numberInt":"19"},"child_comment_id":[],"good_list":[],"bad_list":[],"content":"<p>和麟的作業題目XD</p><p>應該第一題True 第二題False</p>","post_date":{"$date":{"$numberLong":"1559952000000"}},"revise_date":{"$date":{"$numberLong":"1559952000000"}},"author":"LahanBadiso1983","parent_comment_id":{"$numberInt":"13"},"exist":false}
{"_id":{"$oid":"5cfbbb2a8d0af85624284fd8"},"id":{"$numberInt":"15"},"article_id":{"$numberInt":"19"},"child_comment_id":[],"good_list":[],"bad_list":[],"content":"<p>和麟的作業題目XD</p><p>應該第一題True 第二題False</p>","post_date":{"$date":{"$numberLong":"1559952000000"}},"revise_date":{"$date":{"$numberLong":"1559952000000"}},"author":"veryCoolguy","parent_comment_id":{"$numberInt":"13"},"exist":true}
{"_id":{"$oid":"5cfbbb548d0af85624284fe5"},"id":{"$numberInt":"16"},"article_id":{"$numberInt":"19"},"child_comment_id":[],"good_list":["LahanBadiso1983"],"bad_list":["asdfccc"],"content":"<p>樓上可以說為什麼第二題False嗎</p>","post_date":{"$date":{"$numberLong":"1559952000000"}},"revise_date":{"$date":{"$numberLong":"1559952000000"}},"author":"LahanBadiso1983","parent_comment_id":{"$numberInt":"15"},"exist":true}
{"_id":{"$oid":"5cfbbc228d0af85624284ff2"},"id":{"$numberInt":"17"},"article_id":{"$numberInt":"19"},"child_comment_id":[],"good_list":[],"bad_list":[],"content":"<p>因為如果要用master theorem還有一個條件是<span class=\"ql-formula\" data-value=\"af(n/b)<=cf(n), for some c < 1, \\forall n\">﻿<span contenteditable=\"false\"><span class=\"katex\"><span class=\"katex-mathml\"><math><semantics><mrow><mi>a</mi><mi>f</mi><mo stretchy=\"false\">(</mo><mi>n</mi><mi mathvariant=\"normal\">/</mi><mi>b</mi><mo stretchy=\"false\">)</mo><mo>&lt;</mo><mo>=</mo><mi>c</mi><mi>f</mi><mo stretchy=\"false\">(</mo><mi>n</mi><mo stretchy=\"false\">)</mo><mo separator=\"true\">,</mo><mi>f</mi><mi>o</mi><mi>r</mi><mi>s</mi><mi>o</mi><mi>m</mi><mi>e</mi><mi>c</mi><mo>&lt;</mo><mn>1</mn><mo separator=\"true\">,</mo><mi mathvariant=\"normal\">∀</mi><mi>n</mi></mrow><annotation encoding=\"application/x-tex\">af(n/b)&lt;=cf(n), for some c &lt; 1, \\forall n</annotation></semantics></math></span><span class=\"katex-html\" aria-hidden=\"true\"><span class=\"base\"><span class=\"strut\" style=\"height: 1em; vertical-align: -0.25em;\"></span><span class=\"mord mathdefault\">a</span><span class=\"mord mathdefault\" style=\"margin-right: 0.10764em;\">f</span><span class=\"mopen\">(</span><span class=\"mord mathdefault\">n</span><span class=\"mord\">/</span><span class=\"mord mathdefault\">b</span><span class=\"mclose\">)</span><span class=\"mspace\" style=\"margin-right: 0.277778em;\"></span><span class=\"mrel\">&lt;</span></span><span class=\"base\"><span class=\"strut\" style=\"height: 0.36687em; vertical-align: 0em;\"></span><span class=\"mrel\">=</span><span class=\"mspace\" style=\"margin-right: 0.277778em;\"></span></span><span class=\"base\"><span class=\"strut\" style=\"height: 1em; vertical-align: -0.25em;\"></span><span class=\"mord mathdefault\">c</span><span class=\"mord mathdefault\" style=\"margin-right: 0.10764em;\">f</span><span class=\"mopen\">(</span><span class=\"mord mathdefault\">n</span><span class=\"mclose\">)</span><span class=\"mpunct\">,</span><span class=\"mspace\" style=\"margin-right: 0.166667em;\"></span><span class=\"mord mathdefault\" style=\"margin-right: 0.10764em;\">f</span><span class=\"mord mathdefault\">o</span><span class=\"mord mathdefault\" style=\"margin-right: 0.02778em;\">r</span><span class=\"mord mathdefault\">s</span><span class=\"mord mathdefault\">o</span><span class=\"mord mathdefault\">m</span><span class=\"mord mathdefault\">e</span><span class=\"mord mathdefault\">c</span><span class=\"mspace\" style=\"margin-right: 0.277778em;\"></span><span class=\"mrel\">&lt;</span><span class=\"mspace\" style=\"margin-right: 0.277778em;\"></span></span><span class=\"base\"><span class=\"strut\" style=\"height: 0.88888em; vertical-align: -0.19444em;\"></span><span class=\"mord\">1</span><span class=\"mpunct\">,</span><span class=\"mspace\" style=\"margin-right: 0.166667em;\"></span><span class=\"mord\">∀</span><span class=\"mord mathdefault\">n</span></span></span></span></span>﻿</span> </p><p>這樣才能適用case3</p>","post_date":{"$date":{"$numberLong":"1559952000000"}},"revise_date":{"$date":{"$numberLong":"1559952000000"}},"author":"veryCoolguy","parent_comment_id":{"$numberInt":"16"},"exist":true}
{"_id":{"$oid":"5cfbc1eb8d0af85624285032"},"id":{"$numberInt":"18"},"article_id":{"$numberInt":"20"},"child_comment_id":[],"good_list":[],"bad_list":[],"content":"<p>這題你可以去看第三章的矩陣乘法問題</p><p>a的話就是把矩陣分成k個跟n-k個來算 k</p>","post_date":{"$date":{"$numberLong":"1559952000000"}},"revise_date":{"$date":{"$numberLong":"1559952000000"}},"author":"LahanBadiso1983","parent_comment_id":{"$numberInt":"0"},"exist":true}
{"_id":{"$oid":"5cfbd5b48d0af80b441ee686"},"id":{"$numberInt":"19"},"article_id":{"$numberInt":"20"},"child_comment_id":[],"good_list":[],"bad_list":[],"content":"<p>太強了</p>","post_date":{"$date":{"$numberLong":"1559952000000"}},"revise_date":{"$date":{"$numberLong":"1559952000000"}},"author":"asdfccc","parent_comment_id":{"$numberInt":"18"},"exist":true}
{"_id":{"$oid":"5cfc789d8d0af8523413320d"},"id":{"$numberInt":"20"},"article_id":{"$numberInt":"23"},"child_comment_id":[],"good_list":[],"bad_list":[],"content":"<p>longest path problem is np-compelete 在tree上O(v)可解</p>","post_date":{"$date":{"$numberLong":"1560038400000"}},"revise_date":{"$date":{"$numberLong":"1560038400000"}},"author":"LahanBadiso1983","parent_comment_id":{"$numberInt":"0"},"exist":true}
{"_id":{"$oid":"5cfccded8d0af8339080c9a9"},"id":{"$numberInt":"21"},"article_id":{"$numberInt":"20"},"child_comment_id":[],"good_list":[],"bad_list":[],"content":"<p>a</p>","post_date":{"$date":{"$numberLong":"1560038400000"}},"revise_date":{"$date":{"$numberLong":"1560038400000"}},"author":"cvcv","parent_comment_id":{"$numberInt":"0"},"exist":true}
{"_id":{"$oid":"5cfcce478d0af8339080c9ac"},"id":{"$numberInt":"22"},"article_id":{"$numberInt":"20"},"child_comment_id":[],"good_list":[],"bad_list":[],"content":"<p>1</p>","post_date":{"$date":{"$numberLong":"1560038400000"}},"revise_date":{"$date":{"$numberLong":"1560038400000"}},"author":"cvcv","parent_comment_id":{"$numberInt":"0"},"exist":true}
